\relax 
\providecommand\hyper@newdestlabel[2]{}
\providecommand\HyperFirstAtBeginDocument{\AtBeginDocument}
\HyperFirstAtBeginDocument{\ifx\hyper@anchor\@undefined
\global\let\oldcontentsline\contentsline
\gdef\contentsline#1#2#3#4{\oldcontentsline{#1}{#2}{#3}}
\global\let\oldnewlabel\newlabel
\gdef\newlabel#1#2{\newlabelxx{#1}#2}
\gdef\newlabelxx#1#2#3#4#5#6{\oldnewlabel{#1}{{#2}{#3}}}
\AtEndDocument{\ifx\hyper@anchor\@undefined
\let\contentsline\oldcontentsline
\let\newlabel\oldnewlabel
\fi}
\fi}
\global\let\hyper@last\relax 
\gdef\HyperFirstAtBeginDocument#1{#1}
\providecommand\HyField@AuxAddToFields[1]{}
\providecommand\HyField@AuxAddToCoFields[2]{}
\@writefile{toc}{\contentsline {section}{\numberline {1}Generating Tests}{1}{section.1}}
\@writefile{toc}{\contentsline {subsection}{\numberline {1.1}MovieGuide}{1}{subsection.1.1}}
\@writefile{toc}{\contentsline {subsection}{\numberline {1.2}LeafPic}{1}{subsection.1.2}}
\@writefile{toc}{\contentsline {subsection}{\numberline {1.3}Problems being faced}{2}{subsection.1.3}}
\@writefile{toc}{\contentsline {section}{\numberline {2}Is the test coverage adequate?}{2}{section.2}}
\@writefile{toc}{\contentsline {section}{\numberline {3}Does the tool find bugs?}{2}{section.3}}
\@writefile{toc}{\contentsline {section}{\numberline {4}Is the tool easy to use?}{2}{section.4}}
\@writefile{toc}{\contentsline {section}{\numberline {5}What are the limitations of the tool}{2}{section.5}}
\@writefile{toc}{\contentsline {section}{\numberline {6}How would you improve this tool?}{2}{section.6}}
